{
  "apps" : [
    {
      "name": "Microservice №01",
      "script": "microservice_01.js",
      "output": "./m_01/out.log",
      "error": "./m_01/error.log",
      "merge_logs": true
    },
    {
      "name": "Microservice №02",
      "script": "microservice_02.js",
      "cron_restart": "*/5 * * * * *",
      "output": "./m_02/out.log",
      "error": "./m_02/error.log",
      "merge_logs": true
    },
    {
      "name": "Microservice №03",
      "script": "microservice_03.js",
      "output": "./m_03/out.log",
      "error": "./m_03/error.log",
      "merge_logs": true
    },
    {
      "name": "Microservice №04",
      "script": "microservice_04.sh",
      "exec_interpreter": "bash",
      "cron_restart": "*/5 * * * * *",
      "output": "./m_04/out.log",
      "error": "./m_04/error.log",
      "merge_logs": true
    }
  ]
}
